0.030*"frete" + 0.028*"aldeia" + 0.023*"memo" + 0.021*"transporte" + 0.016*"barra" + 0.014*"percurso" + 0.013*"indios" + 0.012*"aerbgs" + 0.012*"ate" + 0.012*"sao"
0.017*"transporte" + 0.013*"frete" + 0.009*"atender" + 0.009*"memo" + 0.008*"onibus" + 0.008*"conforme" + 0.007*"anexo" + 0.006*"materiais" + 0.006*"caramuru" + 0.005*"veiculos"
0.036*"transporte" + 0.013*"veiculos" + 0.012*"frete" + 0.012*"indigenas" + 0.009*"atender" + 0.009*"materiais" + 0.006*"pessoas" + 0.006*"conforme" + 0.006*"aldeia" + 0.006*"especializada"
